"Bolagsnamn";"Rel.utveck.";"Magic";"ROC";"EBIT/EV(%)";"Lista";"Land";"Sektor";"Bransch"
"Besqab";-0.2322619;22;0.4258637;0.2195501;"Mid Cap";"Sverige";"Industri";"Byggnation"
"Componenta";-0.07433151;2;1.163333;0.824523;"Small Cap";"Finland";"Industri";"Tjänster & Leverans"
"Dedicare";-0.6075181;27;0.8172363;0.1118856;"Small Cap";"Sverige";"Industri";"Bemanning"
"DNO";0.31092;11;0.56354;0.2824161;"OBX";"Norge";"Energi";"Olja & Gas"
"Elkem";"";44;0.2803152;0.1435222;"OB Match";"Norge";"Industri";"Produktion"
"Ferronordic Machines";"";25;0.5485587;0.1298478;"Mid Cap";"Sverige";"Industri";"Handel & Distribution"
"Incap";-0.0399139;24;0.5010769;0.1589252;"Small Cap";"Finland";"Industri";"Tjänster & Leverans"
"JM";-0.2784218;38;0.272068;0.1827431;"Large Cap";"Sverige";"Industri";"Byggnation"
"Kvaerner";0.2208322;4;0.8161209;0.6295052;"OB Match";"Norge";"Energi";"Olja & Gas"
"Lucara Diamond";-0.04265146;36;0.3119052;0.1496698;"Mid Cap";"Sverige";"Material";"Gruv & Metall"
"Marimekko";0.9223779;19;0.8912658;0.1235806;"Small Cap";"Finland";"Sällanköpsvaror";"kläder & Textil"
"NextGenTel";-0.2251365;3;1.112356;0.8155053;"OB Standard";"Norge";"Telekommunikation";"Telekommunikationstjänster"
"NGS";-0.4250848;41;0.2716608;0.1617073;"Small Cap";"Sverige";"Industri";"Bemanning"
"Nilörngruppen";-0.09120616;50;0.8553373;0.08621517;"Small Cap";"Sverige";"Industri";"Tjänster & Leverans"
"Oriflame";-0.1802946;28;0.7339765;0.1110509;"Large Cap";"Sverige";"Dagligvaror";"Konsumentprodukter"
"Pandora";-0.4075968;16;0.5915368;0.1483842;"Large Cap";"Denmark";"Sällanköpsvaror";"Konsument"
"RAK Petroleum";0.1965113;14;0.3458346;0.8258182;"OB Match";"Norge";"Energi";"Olja & Gas"
"Raute";0.2434155;12;1.065664;0.1387007;"Small Cap";"Finland";"Industri";"Tjänster & Leverans"
"Rovio";"";42;0.506946;0.1015694;"Mid Cap";"Finland";"Sällanköpsvaror";"Betting & Spel"
"SAS";-0.1263528;32;0.2625375;0.4638653;"Mid Cap";"Sverige";"Industri";"Tjänster & Leverans"
"SAS ddk";-0.19614;30;0.2625375;0.5072659;"Mid Cap";"Denmark";"Industri";"Tjänster & Leverans"
"SAS Nok";-0.1780617;31;0.2625375;0.4914117;"OB Match";"Norge";"Industri";"Tjänster & Leverans"
"Uniflex";-0.07076457;26;0.8551402;0.1142438;"Small Cap";"Sverige";"Industri";"Bemanning"
"Vestas Wind Systems";-0.2609607;33;0.566035;0.1096949;"Large Cap";"Denmark";"Kraftförsörjning";"Energiproducenter"
"Yleiselektroniikka";-0.1469083;49;0.2595074;0.1428405;"Small Cap";"Finland";"Informationsteknik";"Elektronisk utrustning"
